{
    "NOD": [{
        "NAME": "NOD0",
        "IN_BACK": "none",
        "IN_RIGHT": "none",
        "IN_AHEAD": "none",
        "IN_LEFT": "none",
        "OUT_BACK": "none",
        "OUT_RIGHT": "none",
        "OUT_AHEAD": "NOD1",
        "OUT_LEFT": "none",
        "COORDINATES": [0, 0]
    }, {
        "NAME": "NOD1",
        "IN_BACK": "NOD0",
        "IN_RIGHT": "none",
        "IN_AHEAD": "none",
        "IN_LEFT": "none",
        "OUT_BACK": "none",
        "OUT_RIGHT": "none",
        "OUT_AHEAD": "NOD2",
        "OUT_LEFT": "none",
        "COORDINATES": [0, -0.45]
    }, {
        "NAME": "NOD2",
        "IN_BACK": "NOD1",
        "IN_RIGHT": "none",
        "IN_AHEAD": "none",
        "IN_LEFT": "none",
        "OUT_BACK": "none",
        "OUT_RIGHT": "none",
        "OUT_AHEAD": "NOD3",
        "OUT_LEFT": "none",
        "COORDINATES": [0, -0.9]
    }, {
        "NAME": "NOD3",
        "IN_BACK": "NOD2",
        "IN_RIGHT": "NOD34",
        "IN_AHEAD": "none",
        "IN_LEFT": "none",
        "OUT_BACK": "none",
        "OUT_RIGHT": "none",
        "OUT_AHEAD": "NOD4",
        "OUT_LEFT": "none",
        "COORDINATES": [0, -1.35]
    }, {
        "NAME": "NOD4",
        "IN_BACK": "NOD3",
        "IN_RIGHT": "none",
        "IN_AHEAD": "none",
        "IN_LEFT": "none",
        "OUT_BACK": "none",
        "OUT_RIGHT": "none",
        "OUT_AHEAD": "NOD5",
        "OUT_LEFT": "NOD33",
        "COORDINATES": [0, -1.8]
    }, {
        "NAME": "NOD5",
        "IN_BACK": "NOD4",
        "IN_RIGHT": "none",
        "IN_AHEAD": "none",
        "IN_LEFT": "none",
        "OUT_BACK": "none",
        "OUT_RIGHT": "none",
        "OUT_AHEAD": "NOD6",
        "OUT_LEFT": "none",
        "COORDINATES": [0, -2.25]
    }, {
        "NAME": "NOD6",
        "IN_BACK": "NOD5",
        "IN_RIGHT": "none",
        "IN_AHEAD": "none",
        "IN_LEFT": "none",
        "OUT_BACK": "none",
        "OUT_RIGHT": "none",
        "OUT_AHEAD": "NOD7",
        "OUT_LEFT": "none",
        "COORDINATES": [0, -2.7]
    }, {
        "NAME": "NOD7",
        "IN_BACK": "NOD6",
        "IN_RIGHT": "none",
        "IN_AHEAD": "none",
        "IN_LEFT": "none",
        "OUT_BACK": "none",
        "OUT_RIGHT": "none",
        "OUT_AHEAD": "NOD8",
        "OUT_LEFT": "none",
        "COORDINATES": [0, -3.15]
    }, {
        "NAME": "NOD8",
        "IN_BACK": "NOD7",
        "IN_RIGHT": "none",
        "IN_AHEAD": "none",
        "IN_LEFT": "none",
        "OUT_BACK": "none",
        "OUT_RIGHT": "none",
        "OUT_AHEAD": "none",
        "OUT_LEFT": "NOD9",
        "COORDINATES": [0, -3.6]
    }, {
        "NAME": "NOD9",
        "IN_BACK": "none",
        "IN_RIGHT": "NOD8",
        "IN_AHEAD": "none",
        "IN_LEFT": "none",
        "OUT_BACK": "none",
        "OUT_RIGHT": "none",
        "OUT_AHEAD": "none",
        "OUT_LEFT": "NOD10",
        "COORDINATES": [0.45, -3.6]
    }, {
        "NAME": "NOD10",
        "IN_BACK": "none",
        "IN_RIGHT": "NOD9",
        "IN_AHEAD": "none",
        "IN_LEFT": "none",
        "OUT_BACK": "none",
        "OUT_RIGHT": "none",
        "OUT_AHEAD": "none",
        "OUT_LEFT": "NOD11",
        "COORDINATES": [0.9, -3.6]
    }, {
        "NAME": "NOD11",
        "IN_BACK": "none",
        "IN_RIGHT": "NOD10",
        "IN_AHEAD": "none",
        "IN_LEFT": "none",
        "OUT_BACK": "none",
        "OUT_RIGHT": "none",
        "OUT_AHEAD": "none",
        "OUT_LEFT": "NOD12",
        "COORDINATES": [1.35, -3.6]
    }, {
        "NAME": "NOD12",
        "IN_BACK": "none",
        "IN_RIGHT": "NOD11",
        "IN_AHEAD": "none",
        "IN_LEFT": "none",
        "OUT_BACK": "none",
        "OUT_RIGHT": "none",
        "OUT_AHEAD": "none",
        "OUT_LEFT": "NOD13",
        "COORDINATES": [1.8, -3.6]
    }, {
        "NAME": "NOD13",
        "IN_BACK": "none",
        "IN_RIGHT": "NOD12",
        "IN_AHEAD": "none",
        "IN_LEFT": "none",
        "OUT_BACK": "NOD14",
        "OUT_RIGHT": "none",
        "OUT_AHEAD": "none",
        "OUT_LEFT": "none",
        "COORDINATES": [2.25, -3.6]
    }, {
        "NAME": "NOD14",
        "IN_BACK": "none",
        "IN_RIGHT": "none",
        "IN_AHEAD": "NOD13",
        "IN_LEFT": "none",
        "OUT_BACK": "NOD15",
        "OUT_RIGHT": "none",
        "OUT_AHEAD": "none",
        "OUT_LEFT": "none",
        "COORDINATES": [2.25, -3.15]
    }, {
        "NAME": "NOD15",
        "IN_BACK": "none",
        "IN_RIGHT": "none",
        "IN_AHEAD": "NOD14",
        "IN_LEFT": "none",
        "OUT_BACK": "NOD16",
        "OUT_RIGHT": "none",
        "OUT_AHEAD": "none",
        "OUT_LEFT": "none",
        "COORDINATES": [2.25, -2.7]
    }, {
        "NAME": "NOD16",
        "IN_BACK": "NOD17",
        "IN_RIGHT": "none",
        "IN_AHEAD": "NOD15",
        "IN_LEFT": "none",
        "OUT_BACK": "NOD17",
        "OUT_RIGHT": "none",
        "OUT_AHEAD": "none",
        "OUT_LEFT": "none",
        "COORDINATES": [2.25, -2.25]
    }, {
        "NAME": "NOD17",
        "IN_BACK": "none",
        "IN_RIGHT": "none",
        "IN_AHEAD": "NOD16",
        "IN_LEFT": "NOD24",
        "OUT_BACK": "NOD18",
        "OUT_RIGHT": "none",
        "OUT_AHEAD": "none",
        "OUT_LEFT": "none",
        "COORDINATES": [2.25, -1.8]
    }, {
        "NAME": "NOD18",
        "IN_BACK": "none",
        "IN_RIGHT": "none",
        "IN_AHEAD": "NOD17",
        "IN_LEFT": "none",
        "OUT_BACK": "NOD19",
        "OUT_RIGHT": "NOD23",
        "OUT_AHEAD": "none",
        "OUT_LEFT": "none",
        "COORDINATES": [2.25, -1.35]
    }, {
        "NAME": "NOD19",
        "IN_BACK": "none",
        "IN_RIGHT": "none",
        "IN_AHEAD": "NOD18",
        "IN_LEFT": "none",
        "OUT_BACK": "NOD20",
        "OUT_RIGHT": "none",
        "OUT_AHEAD": "none",
        "OUT_LEFT": "none",
        "COORDINATES": [2.25, -0.9]
    }, {
        "NAME": "NOD20",
        "IN_BACK": "none",
        "IN_RIGHT": "none",
        "IN_AHEAD": "NOD19",
        "IN_LEFT": "none",
        "OUT_BACK": "none",
        "OUT_RIGHT": "NOD21",
        "OUT_AHEAD": "none",
        "OUT_LEFT": "none",
        "COORDINATES": [2.25, -0.45]
    }, {
        "NAME": "NOD21",
        "IN_BACK": "none",
        "IN_RIGHT": "none",
        "IN_AHEAD": "none",
        "IN_LEFT": "NOD20",
        "OUT_BACK": "none",
        "OUT_RIGHT": "none",
        "OUT_AHEAD": "NOD22",
        "OUT_LEFT": "none",
        "COORDINATES": [1.8, -0.45]
    }, {
        "NAME": "NOD22",
        "IN_BACK": "NOD21",
        "IN_RIGHT": "none",
        "IN_AHEAD": "none",
        "IN_LEFT": "none",
        "OUT_BACK": "none",
        "OUT_RIGHT": "none",
        "OUT_AHEAD": "NOD47",
        "OUT_LEFT": "none",
        "COORDINATES": [1.8, -0.9]
    }, {
        "NAME": "NOD23",
        "IN_BACK": "NOD22",
        "IN_RIGHT": "none",
        "IN_AHEAD": "none",
        "IN_LEFT": "NOD18",
        "OUT_BACK": "none",
        "OUT_RIGHT": "NOD38",
        "OUT_AHEAD": "NOD48",
        "OUT_LEFT": "none",
        "COORDINATES": [1.8, -1.35]
    }, {
        "NAME": "NOD24",
        "IN_BACK": "NOD23",
        "IN_RIGHT": "NOD40",
        "IN_AHEAD": "none",
        "IN_LEFT": "none",
        "OUT_BACK": "none",
        "OUT_RIGHT": "none",
        "OUT_AHEAD": "NOD25",
        "OUT_LEFT": "NOD45",
        "COORDINATES": [1.8, -1.8]
    }, {
        "NAME": "NOD25",
        "IN_BACK": "NOD24",
        "IN_RIGHT": "none",
        "IN_AHEAD": "none",
        "IN_LEFT": "none",
        "OUT_BACK": "none",
        "OUT_RIGHT": "none",
        "OUT_AHEAD": "NOD26",
        "OUT_LEFT": "none",
        "COORDINATES": [1.8, -2.25]
    }, {
        "NAME": "NOD26",
        "IN_BACK": "NOD25",
        "IN_RIGHT": "none",
        "IN_AHEAD": "none",
        "IN_LEFT": "none",
        "OUT_BACK": "none",
        "OUT_RIGHT": "none",
        "OUT_AHEAD": "NOD27",
        "OUT_LEFT": "none",
        "COORDINATES": [1.8, -2.7]
    }, {
        "NAME": "NOD27",
        "IN_BACK": "NOD26",
        "IN_RIGHT": "none",
        "IN_AHEAD": "none",
        "IN_LEFT": "none",
        "OUT_BACK": "none",
        "OUT_RIGHT": "NOD28",
        "OUT_AHEAD": "none",
        "OUT_LEFT": "none",
        "COORDINATES": [1.8, -3.15]
    }, {
        "NAME": "NOD28",
        "IN_BACK": "none",
        "IN_RIGHT": "none",
        "IN_AHEAD": "none",
        "IN_LEFT": "NOD27",
        "OUT_BACK": "none",
        "OUT_RIGHT": "NOD29",
        "OUT_AHEAD": "none",
        "OUT_LEFT": "none",
        "COORDINATES": [1.35, -3.15]
    }, {
        "NAME": "NOD29",
        "IN_BACK": "none",
        "IN_RIGHT": "none",
        "IN_AHEAD": "none",
        "IN_LEFT": "NOD28",
        "OUT_BACK": "none",
        "OUT_RIGHT": "NOD30",
        "OUT_AHEAD": "none",
        "OUT_LEFT": "none",
        "COORDINATES": [0.9, -3.15]
    }, {
        "NAME": "NOD30",
        "IN_BACK": "none",
        "IN_RIGHT": "none",
        "IN_AHEAD": "none",
        "IN_LEFT": "NOD29",
        "OUT_BACK": "NOD31",
        "OUT_RIGHT": "none",
        "OUT_AHEAD": "none",
        "OUT_LEFT": "none",
        "COORDINATES": [0.45, -3.15]
    }, {
        "NAME": "NOD31",
        "IN_BACK": "none",
        "IN_RIGHT": "none",
        "IN_AHEAD": "NOD30",
        "IN_LEFT": "none",
        "OUT_BACK": "NOD32",
        "OUT_RIGHT": "none",
        "OUT_AHEAD": "none",
        "OUT_LEFT": "none",
        "COORDINATES": [0.45, -2.7]
    }, {
        "NAME": "NOD32",
        "IN_BACK": "none",
        "IN_RIGHT": "none",
        "IN_AHEAD": "NOD31",
        "IN_LEFT": "none",
        "OUT_BACK": "NOD41",
        "OUT_RIGHT": "none",
        "OUT_AHEAD": "none",
        "OUT_LEFT": "none",
        "COORDINATES": [0.45, -2.25]
    }, {
        "NAME": "NOD33",
        "IN_BACK": "none",
        "IN_RIGHT": "NOD4",
        "IN_AHEAD": "NOD32",
        "IN_LEFT": "none",
        "OUT_BACK": "none",
        "OUT_RIGHT": "none",
        "OUT_AHEAD": "none",
        "OUT_LEFT": "NOD39",
        "COORDINATES": [0.45, -1.8]
    }, {
        "NAME": "NOD34",
        "IN_BACK": "none",
        "IN_RIGHT": "none",
        "IN_AHEAD": "NOD33",
        "IN_LEFT": "NOD37",
        "OUT_BACK": "NOD35",
        "OUT_RIGHT": "NOD43",
        "OUT_AHEAD": "none",
        "OUT_LEFT": "none",
        "COORDINATES": [0.45, -1.35]
    }, {
        "NAME": "NOD35",
        "IN_BACK": "none",
        "IN_RIGHT": "none",
        "IN_AHEAD": "NOD34",
        "IN_LEFT": "none",
        "OUT_BACK": "NOD36",
        "OUT_RIGHT": "none",
        "OUT_AHEAD": "none",
        "OUT_LEFT": "none",
        "COORDINATES": [0.45, -0.9]
    }, {
        "NAME": "NOD36",
        "IN_BACK": "none",
        "IN_RIGHT": "none",
        "IN_AHEAD": "none",
        "IN_LEFT": "none",
        "OUT_BACK": "NOD49",
        "OUT_RIGHT": "none",
        "OUT_AHEAD": "none",
        "OUT_LEFT": "none",
        "COORDINATES": [0.45, -0.45]
    }, {
        "NAME": "NOD37",
        "IN_BACK": "none",
        "IN_RIGHT": "none",
        "IN_AHEAD": "none",
        "IN_LEFT": "NOD38",
        "OUT_BACK": "none",
        "OUT_RIGHT": "NOD34",
        "OUT_AHEAD": "none",
        "OUT_LEFT": "none",
        "COORDINATES": [0.9, -1.35]
    }, {
        "NAME": "NOD38",
        "IN_BACK": "none",
        "IN_RIGHT": "none",
        "IN_AHEAD": "none",
        "IN_LEFT": "NOD23",
        "OUT_BACK": "none",
        "OUT_RIGHT": "NOD37",
        "OUT_AHEAD": "none",
        "OUT_LEFT": "none",
        "COORDINATES": [1.35, -1.35]
    }, {
        "NAME": "NOD39",
        "IN_BACK": "none",
        "IN_RIGHT": "NOD33",
        "IN_AHEAD": "none",
        "IN_LEFT": "none",
        "OUT_BACK": "none",
        "OUT_RIGHT": "none",
        "OUT_AHEAD": "none",
        "OUT_LEFT": "NOD40",
        "COORDINATES": [0.9, -1.8]
    }, {
        "NAME": "NOD40",
        "IN_BACK": "none",
        "IN_RIGHT": "NOD39",
        "IN_AHEAD": "none",
        "IN_LEFT": "none",
        "OUT_BACK": "none",
        "OUT_RIGHT": "none",
        "OUT_AHEAD": "none",
        "OUT_LEFT": "NOD24",
        "COORDINATES": [1.35, -1.8]
    }, {
        "NAME": "NOD41",
        "IN_BACK": "none",
        "IN_RIGHT": "none",
        "IN_AHEAD": "none",
        "IN_LEFT": "none",
        "OUT_BACK": "NOD42",
        "OUT_RIGHT": "none",
        "OUT_AHEAD": "none",
        "OUT_LEFT": "NOD39",
        "COORDINATES": [0.45, -1.8]
    }, {
        "NAME": "NOD42",
        "IN_BACK": "none",
        "IN_RIGHT": "none",
        "IN_AHEAD": "none",
        "IN_LEFT": "none",
        "OUT_BACK": "NOD35",
        "OUT_RIGHT": "none",
        "OUT_AHEAD": "none",
        "OUT_LEFT": "none",
        "COORDINATES": [0.45, -1.35]
    }, {
        "NAME": "NOD43",
        "IN_BACK": "none",
        "IN_RIGHT": "none",
        "IN_AHEAD": "none",
        "IN_LEFT": "none",
        "OUT_BACK": "none",
        "OUT_RIGHT": "none",
        "OUT_AHEAD": "NOD44",
        "OUT_LEFT": "none",
        "COORDINATES": [0, -1.35]
    }, {
        "NAME": "NOD44",
        "IN_BACK": "none",
        "IN_RIGHT": "none",
        "IN_AHEAD": "none",
        "IN_LEFT": "none",
        "OUT_BACK": "none",
        "OUT_RIGHT": "none",
        "OUT_AHEAD": "NOD5",
        "OUT_LEFT": "none",
        "COORDINATES": [0, -1.8]
    }, {
        "NAME": "NOD45",
        "IN_BACK": "none",
        "IN_RIGHT": "NOD39",
        "IN_AHEAD": "none",
        "IN_LEFT": "none",
        "OUT_BACK": "NOD46",
        "OUT_RIGHT": "none",
        "OUT_AHEAD": "none",
        "OUT_LEFT": "none",
        "COORDINATES": [2.25, -1.8]
    }, {
        "NAME": "NOD46",
        "IN_BACK": "none",
        "IN_RIGHT": "NOD39",
        "IN_AHEAD": "none",
        "IN_LEFT": "none",
        "OUT_BACK": "NOD19",
        "OUT_RIGHT": "none",
        "OUT_AHEAD": "none",
        "OUT_LEFT": "none",
        "COORDINATES": [2.25, -1.35]
    }, {
        "NAME": "NOD47",
        "IN_BACK": "none",
        "IN_RIGHT": "none",
        "IN_AHEAD": "none",
        "IN_LEFT": "none",
        "OUT_BACK": "none",
        "OUT_RIGHT": "NOD38",
        "OUT_AHEAD": "NOD48",
        "OUT_LEFT": "none",
        "COORDINATES": [1.8, -1.35]
    }, {
        "NAME": "NOD48",
        "IN_BACK": "none",
        "IN_RIGHT": "none",
        "IN_AHEAD": "none",
        "IN_LEFT": "none",
        "OUT_BACK": "none",
        "OUT_RIGHT": "none",
        "OUT_AHEAD": "NOD25",
        "OUT_LEFT": "none",
        "COORDINATES": [1.8, -1.8]
    }, {
        "NAME": "NOD49",
        "IN_BACK": "NOD36",
        "IN_RIGHT": "none",
        "IN_AHEAD": "none",
        "IN_LEFT": "none",
        "OUT_BACK": "none",
        "OUT_RIGHT": "none",
        "OUT_AHEAD": "none",
        "OUT_LEFT": "none",
        "COORDINATES": [0, 0]
    }]
}