@ENPB:0.00;;
@ENPB:0.00;;
@ENPB:0.00;;
@ENPB:0.00;;
@ENPB:0.00;;
@ENPB:0.00;;
@ENPB:0.00;;
@ENPB:0.00;;
@ENPB:0.00;;
@ENPB:0.00;;
@ENPB:0.00;;
@ENPB:0.00;;
@ENPB:0.00;;
@ENPB:0.00;;
@ENPB:0.00;;
@ENPB:0.00;;
@ENPB:0.00;;
@ENPB:0.00;;
@ENPB:0.00;;
@ENPB:0.00;;
@ENPB:0.00;;
@ENPB:0.00;;
@ENPB:0.00;;
@ENPB:0.00;;
@ENPB:0.00;;
@ENPB:0.00;;
@ENPB:0.00;;
@ENPB:0.00;;
@ENPB:0.00;;
@ENPB:0.00;;
@ENPB:0.00;;
@ENPB:0.00;;
@ENPB:0.00;;
@ENPB:0.00;;
@EN@ENPB:0.00;;
@ENPB:ack;;
@ENPB:ack;;
@ENPB:0.00;;
@ENPB:0.00;;
@ENPB:0.00;;
@ENPB:0.00;;
@ENPB:0.00;;
@ENPB:0.00;;
@ENPB:0.00;;
@ENPB:0.00;;
@ENPB:0.00;;
@ENPB:0.00;;
@ENPB:0.00;;
@ENPB:0.00;;
@ENPB:0.00;;
@ENPB:0.00;;
@ENPB:0.00;;
@ENPB:0.00;;
@ENPB:0.00;;
@ENPB:0.00;;
@ENPB:0.00;;
@ENPB:0.00;;
@ENPB:0.00;;
@ENPB:0.00;;
@ENPB:0.00;;
@ENPB:0.00;;
@ENPB:0.00;;
@ENPB:0.00;;
@ENPB:0.00;;
@ENPB:0.00;;
@ENPB:0.00;;
@ENPB:0.00;;
@ENPB:0.00;;
@ENPB:0.00;;
@ENPB:0.00;;
@ENPB:0.00;;
@ENPB:0.00;;
@ENPB:0.00;;
@ENPB:0.00;;
@ENPB:0.00;;
@ENPB:0.00;;
@ENPB:0.00;;
@ENPB:0.00;;
@ENPB:0.00;;
@ENPB:0.00;;
@ENPB:0.00;;
@ENPB:0.00;;
@ENPB:0.00;;
@ENPB:0.00;;
@ENPB:0.00;;
@ENPB:0.00;;
@ENPB:0.00;;
@ENPB:0.00;;
@ENPB:0.00;;
@ENPB:0.00;;
@ENPB:0.00;;
@ENPB:0.00;;
@ENPB:0.00;;
@ENPB:0.00;;
@ENPB:0.00;;
@ENPB:0.00;;
@ENPB:0.00;;
@ENPB:0.00;;
@ENPB:0.00;;
@ENPB:0.00;;
@ENPB:0.00;;
@ENPB:0.00;;
@ENPB:0.00;;
@ENPB:0.00;;
@ENPB:0.00;;
@ENPB:0.00;;
@ENPB:0.00;;
@ENPB:0.00;;
@ENPB:0.00;;
@ENPB:0.00;;
@ENPB:0.00;;
@ENPB:0.00;;
@ENPB:0.00;;
@ENPB:0.00;;
@ENPB:0.00;;
@ENPB:0.00;;
@ENPB:0.00;;
@ENPB:0.00;;
@ENPB:0.00;;
@ENPB:0.00;;
@ENPB:0.00;;
@ENPB:0.00;;
@ENPB:0.00;;
@ENPB:0.00;;
@ENPB:0.00;;
@ENPB:0.00;;
@ENPB:0.00;;
@ENPB:0.00;;
@ENPB:0.00;;
@ENPB:0.00;;
@ENPB:0.00;;
@ENPB:0.00;;
@ENPB:0.00;;
@ENPB:0.00;;
@ENPB:0.00;;
@ENPB:0.00;;
@ENPB:0.00;;
@ENPB:0.00;;
@ENPB:0.00;;
@ENPB:0.00;;
@ENPB:0.00;;
@ENPB:0.00;;
@ENPB:0.00;;
@ENPB:0.00;;
@ENPB:0.00;;
@ENPB:0.00;;
@ENPB:0.00;;
@ENPB:0.00;;
@ENPB:0.00;;
@ENPB:0.00;;
@ENPB:0.00;;
@ENPB:0.00;;
@ENPB:0.00;;
@ENPB:0.00;;
@ENPB:0.00;;
@ENPB:0.00;;
@ENPB:0.00;;
@ENPB:0.00;;
@ENPB:0.00;;
@ENPB:0.00;;
@ENPB:0.00;;
@ENPB:0.00;;
@ENPB:0.00;;
@ENPB:0.00;;
@ENPB:0.00;;
@ENPB:0.00;;
@ENPB:0.00;;
@ENPB:0.00;;
@ENPB:0.00;;
@ENPB:0.00;;
@ENPB:0.00;;
@ENPB:0.00;;
@ENPB:0.00;;
@ENPB:0.00;;
@ENPB:0.00;;
@ENPB:0.00;;
@ENPB:0.00;;
@ENPB:0.00;;
@ENPB:0.00;;
@ENPB:0.00;;
@ENPB:0.00;;
@ENPB:0.00;;
@ENPB:0.00;;
@ENPB:0.00;;
@ENPB:0.00;;
@ENPB:0.00;;
@ENPB:0.00;;
@ENPB:0.00;;
@ENPB:0.00;;
@ENPB:0.00;;
@ENPB:0.00;;
@ENPB:0.00;;
@ENPB:0.00;;
@ENPB:0.00;;
@ENPB:0.00;;
@ENPB:0.00;;
@ENPB:0.00;;
@ENPB:0.00;;
@ENPB:0.00;;
@ENPB:0.00;;
@ENPB:0.00;;
@ENPB:0.00;;
@ENPB:0.00;;
@ENPB:0.00;;
@ENPB:0.00;;
@ENPB:0.00;;
@ENPB:0.00;;
@ENPB:0.00;;
@ENPB:0.00;;
@ENPB:0.00;;
@ENPB:0.00;;
@ENPB:0.00;;
@ENPB:0.00;;
@ENPB:0.00;;
@ENPB:0.00;;
@ENPB:0.00;;
@ENPB:0.00;;
@ENPB:0.00;;
@ENPB:0.00;;
@ENPB:0.00;;
@ENPB:0.00;;
@ENPB:0.00;;
@ENPB:0.00;;
@ENPB:0.00;;
@ENPB:0.00;;
@ENPB:0.00;;
@ENPB:0.00;;
@ENPB:0.00;;
@ENPB:0.00;;
@ENPB:0.00;;
@ENPB:0.00;;
@ENPB:0.00;;
@ENPB:0.00;;
@ENPB:0.00;;
@ENPB:0.00;;
@ENPB:0.00;;
@ENPB:0.00;;
@ENPB:0.00;;
@ENPB:0.00;;
@ENPB:0.00;;
@ENPB:0.00;;
@ENPB:0.00;;
@ENPB:0.00;;
@ENPB:0.00;;
@ENPB:0.00;;
@ENPB:0.00;;
@ENPB:0.00;;
@ENPB:0.00;;
@ENPB:0.00;;
@ENPB:0.00;;
@ENPB:0.00;;
@ENPB:0.00;;
@ENPB:0.00;;
@ENPB:0.00;;
@ENPB:0.00;;
@ENPB:0.00;;
@ENPB:0.00;;
@ENPB:0.00;;
@ENPB:0.00;;
@ENPB:0.00;;
@ENPB:0.00;;
@ENPB:0.00;;
@ENPB:0.00;;
@ENPB:0.00;;
@ENPB:0.00;;
@ENPB:0.00;;
@ENPB:0.00;;
@ENPB:0.00;;
@ENPB:0.00;;
@ENPB:0.00;;
@ENPB:0.00;;
@ENPB:0.00;;
@ENPB:0.00;;
@ENPB:0.00;;
@ENPB:0.00;;
@ENPB:0.00;;
@ENPB:0.00;;
@ENPB:0.00;;
@ENPB:0.00;;
@ENPB:0.00;;
@ENPB:0.00;;
@ENPB:0.00;;
@ENPB:0.00;;
@ENPB:0.00;;
@ENPB:0.00;;
@ENPB:0.00;;
@ENPB:0.00;;
@ENPB:0.00;;
@ENPB:0.00;;
@ENPB:0.00;;
@ENPB:0.00;;
@ENPB:0.00;;
@ENPB:0